%YAML 1.1
%TAG !u! tag:unity3d.com,2011:
--- !u!1 &4372174171505857848
GameObject:
  m_ObjectHideFlags: 0
  m_CorrespondingSourceObject: {fileID: 0}
  m_PrefabInstance: {fileID: 0}
  m_PrefabAsset: {fileID: 0}
  serializedVersion: 6
  m_Component:
  - component: {fileID: 4372174171505857850}
  - component: {fileID: 4372174171505857851}
  - component: {fileID: 4372174171505857849}
  - component: {fileID: 3142843194872009911}
  m_Layer: 0
  m_Name: lafe1
  m_TagString: Untagged
  m_Icon: {fileID: 0}
  m_NavMeshLayer: 0
  m_StaticEditorFlags: 0
  m_IsActive: 1
--- !u!4 &4372174171505857850
Transform:
  m_ObjectHideFlags: 0
  m_CorrespondingSourceObject: {fileID: 0}
  m_PrefabInstance: {fileID: 0}
  m_PrefabAsset: {fileID: 0}
  m_GameObject: {fileID: 4372174171505857848}
  m_LocalRotation: {x: 0, y: 0, z: 0, w: 1}
  m_LocalPosition: {x: -0.8178817, y: 0.8604106, z: 0}
  m_LocalScale: {x: 0.15, y: 0.15, z: 1}
  m_Children: []
  m_Father: {fileID: 0}
  m_RootOrder: 0
  m_LocalEulerAnglesHint: {x: 0, y: 0, z: 0}
--- !u!212 &4372174171505857851
SpriteRenderer:
  m_ObjectHideFlags: 0
  m_CorrespondingSourceObject: {fileID: 0}
  m_PrefabInstance: {fileID: 0}
  m_PrefabAsset: {fileID: 0}
  m_GameObject: {fileID: 4372174171505857848}
  m_Enabled: 1
  m_CastShadows: 0
  m_ReceiveShadows: 0
  m_DynamicOccludee: 1
  m_MotionVectors: 1
  m_LightProbeUsage: 1
  m_ReflectionProbeUsage: 1
  m_RenderingLayerMask: 1
  m_RendererPriority: 0
  m_Materials:
  - {fileID: 10754, guid: 0000000000000000f000000000000000, type: 0}
  m_StaticBatchInfo:
    firstSubMesh: 0
    subMeshCount: 0
  m_StaticBatchRoot: {fileID: 0}
  m_ProbeAnchor: {fileID: 0}
  m_LightProbeVolumeOverride: {fileID: 0}
  m_ScaleInLightmap: 1
  m_PreserveUVs: 0
  m_IgnoreNormalsForChartDetection: 0
  m_ImportantGI: 0
  m_StitchLightmapSeams: 0
  m_SelectedEditorRenderState: 0
  m_MinimumChartSize: 4
  m_AutoUVMaxDistance: 0.5
  m_AutoUVMaxAngle: 89
  m_LightmapParameters: {fileID: 0}
  m_SortingLayerID: 0
  m_SortingLayer: 0
  m_SortingOrder: 0
  m_Sprite: {fileID: 21300000, guid: b7fa049fb487518408387058ebde8021, type: 3}
  m_Color: {r: 1, g: 1, b: 1, a: 1}
  m_FlipX: 0
  m_FlipY: 0
  m_DrawMode: 0
  m_Size: {x: 14, y: 14.36}
  m_AdaptiveModeThreshold: 0.5
  m_SpriteTileMode: 0
  m_WasSpriteAssigned: 1
  m_MaskInteraction: 1
  m_SpriteSortPoint: 0
--- !u!114 &4372174171505857849
MonoBehaviour:
  m_ObjectHideFlags: 0
  m_CorrespondingSourceObject: {fileID: 0}
  m_PrefabInstance: {fileID: 0}
  m_PrefabAsset: {fileID: 0}
  m_GameObject: {fileID: 4372174171505857848}
  m_Enabled: 1
  m_EditorHideFlags: 0
  m_Script: {fileID: 11500000, guid: 4019d43476540b742885eb8a803facae, type: 3}
  m_Name: 
  m_EditorClassIdentifier: 
--- !u!60 &3142843194872009911
PolygonCollider2D:
  m_ObjectHideFlags: 0
  m_CorrespondingSourceObject: {fileID: 0}
  m_PrefabInstance: {fileID: 0}
  m_PrefabAsset: {fileID: 0}
  m_GameObject: {fileID: 4372174171505857848}
  m_Enabled: 1
  m_Density: 1
  m_Material: {fileID: 0}
  m_IsTrigger: 1
  m_UsedByEffector: 0
  m_UsedByComposite: 0
  m_Offset: {x: 0, y: 0}
  m_SpriteTilingProperty:
    border: {x: 0, y: 0, z: 0, w: 0}
    pivot: {x: 0.5, y: 0.5}
    oldSize: {x: 14, y: 14.36}
    newSize: {x: 14, y: 14.36}
    adaptiveTilingThreshold: 0.5
    drawMode: 0
    adaptiveTiling: 0
  m_AutoTiling: 0
  m_Points:
    m_Paths:
    - - {x: 3.32, y: -7.16}
      - {x: 3.32, y: -7.18}
      - {x: 3.3799999, y: -7.18}
      - {x: 3.3799999, y: -7.1499996}
      - {x: 3.36, y: -7.1299996}
      - {x: 3.35, y: -7.1299996}
    - - {x: 2.59, y: -6.85}
      - {x: 2.61, y: -6.87}
      - {x: 2.6399999, y: -6.8599997}
      - {x: 2.6399999, y: -6.83}
      - {x: 2.62, y: -6.81}
      - {x: 2.59, y: -6.8199997}
    - - {x: 3.73, y: -6.23}
      - {x: 3.72, y: -6.2}
      - {x: 3.58, y: -6.0899997}
      - {x: 3.54, y: -6.1099997}
      - {x: 3.47, y: -6}
      - {x: 3.35, y: -5.8799996}
      - {x: 3.22, y: -5.83}
      - {x: 3.1299999, y: -5.83}
      - {x: 3.1299999, y: -6.02}
      - {x: 3.1699998, y: -6.1}
      - {x: 3.31, y: -6.33}
      - {x: 3.36, y: -6.49}
      - {x: 3.4199998, y: -6.52}
      - {x: 3.53, y: -6.52}
      - {x: 3.6999998, y: -6.39}
      - {x: 3.73, y: -6.35}
    - - {x: -0.53, y: -5.81}
      - {x: -0.71, y: -5.66}
      - {x: -0.83, y: -5.66}
      - {x: -0.89, y: -5.7599998}
      - {x: -0.89, y: -5.87}
      - {x: -0.83, y: -6.1099997}
      - {x: -0.7, y: -6.41}
      - {x: -0.64, y: -6.47}
      - {x: -0.58, y: -6.49}
      - {x: -0.52, y: -6.49}
      - {x: -0.47, y: -6.45}
      - {x: -0.47, y: -6.19}
    - - {x: 4.8399997, y: -5.95}
      - {x: 4.8599997, y: -5.97}
      - {x: 4.89, y: -5.96}
      - {x: 4.89, y: -5.93}
      - {x: 4.87, y: -5.91}
      - {x: 4.8399997, y: -5.92}
    - - {x: -3.33, y: -5.75}
      - {x: -3.4099998, y: -5.83}
      - {x: -3.4099998, y: -5.93}
      - {x: -3.3999999, y: -5.96}
      - {x: -3.3, y: -5.96}
      - {x: -3.28, y: -5.95}
      - {x: -3.28, y: -5.7999997}
      - {x: -3.29, y: -5.75}
    - - {x: -4.02, y: -4.9}
      - {x: -4.13, y: -4.98}
      - {x: -4.24, y: -5.12}
      - {x: -4.24, y: -5.2}
      - {x: -4.22, y: -5.27}
      - {x: -4.17, y: -5.2999997}
      - {x: -4.0499997, y: -5.2999997}
      - {x: -3.9199998, y: -5.17}
      - {x: -3.9199998, y: -4.9}
    - - {x: -0.35, y: -4.7999997}
      - {x: -0.42, y: -4.8199997}
      - {x: -0.44, y: -4.91}
      - {x: -0.44, y: -4.99}
      - {x: -0.34, y: -5.21}
      - {x: -0.22, y: -5.27}
      - {x: -0.089999996, y: -5.27}
      - {x: -0.089999996, y: -5.0299997}
      - {x: -0.17999999, y: -4.7999997}
    - - {x: 3.82, y: -5.16}
      - {x: 3.81, y: -5.21}
      - {x: 3.83, y: -5.23}
      - {x: 3.85, y: -5.23}
      - {x: 3.87, y: -5.21}
      - {x: 3.87, y: -5.17}
      - {x: 3.85, y: -5.15}
    - - {x: 2.6299999, y: -4.83}
      - {x: 2.52, y: -4.7599998}
      - {x: 2.35, y: -4.67}
      - {x: 2.26, y: -4.6}
      - {x: 2.1, y: -4.6}
      - {x: 2.02, y: -4.67}
      - {x: 2.02, y: -4.7599998}
      - {x: 2.07, y: -4.89}
      - {x: 2.35, y: -5}
      - {x: 2.5, y: -5.12}
      - {x: 2.6499999, y: -5.12}
      - {x: 2.6699998, y: -5.1}
      - {x: 2.6799998, y: -5.0699997}
      - {x: 2.6799998, y: -4.96}
    - - {x: 4.17, y: -4.8599997}
      - {x: 4.14, y: -4.91}
      - {x: 4.14, y: -4.97}
      - {x: 4.2, y: -5}
      - {x: 4.25, y: -5}
      - {x: 4.27, y: -4.99}
      - {x: 4.27, y: -4.9}
      - {x: 4.25, y: -4.8599997}
    - - {x: 4.56, y: -4.6}
      - {x: 4.5899997, y: -4.63}
      - {x: 4.62, y: -4.62}
      - {x: 4.62, y: -4.5899997}
      - {x: 4.5899997, y: -4.56}
      - {x: 4.56, y: -4.5699997}
    - - {x: -3.6299999, y: -3.6799998}
      - {x: -3.72, y: -4}
      - {x: -3.72, y: -4.25}
      - {x: -3.6299999, y: -4.25}
      - {x: -3.3899999, y: -4.0299997}
      - {x: -3.3899999, y: -3.6799998}
    - - {x: 1.78, y: -3.78}
      - {x: 1.7199999, y: -3.76}
      - {x: 1.63, y: -3.76}
      - {x: 1.62, y: -3.8}
      - {x: 1.62, y: -3.9099998}
      - {x: 1.74, y: -4.0299997}
      - {x: 1.9, y: -4.0299997}
      - {x: 1.91, y: -3.99}
      - {x: 1.91, y: -3.9199998}
      - {x: 1.8499999, y: -3.83}
    - - {x: -1.0699999, y: -3.6999998}
      - {x: -1.17, y: -3.6999998}
      - {x: -1.23, y: -3.75}
      - {x: -1.23, y: -3.8999999}
      - {x: -1.16, y: -4}
      - {x: -1.0799999, y: -4}
      - {x: -1.01, y: -3.9599998}
      - {x: -1.01, y: -3.77}
    - - {x: -2.5, y: -3.7099998}
      - {x: -2.52, y: -3.72}
      - {x: -2.52, y: -3.74}
      - {x: -2.5, y: -3.84}
      - {x: -2.45, y: -3.87}
      - {x: -2.3999999, y: -3.87}
      - {x: -2.3799999, y: -3.82}
      - {x: -2.3799999, y: -3.76}
      - {x: -2.4199998, y: -3.7099998}
    - - {x: 4.19, y: -3.6399999}
      - {x: 4.21, y: -3.51}
      - {x: 4.21, y: -3.3999999}
      - {x: 4.0899997, y: -3.32}
      - {x: 3.9199998, y: -3.32}
      - {x: 3.62, y: -3.3799999}
      - {x: 3.3999999, y: -3.37}
      - {x: 3.33, y: -3.33}
      - {x: 3.3, y: -3.32}
      - {x: 3.21, y: -3.32}
      - {x: 3.1499999, y: -3.33}
      - {x: 3.12, y: -3.3799999}
      - {x: 3.12, y: -3.49}
      - {x: 3.1899998, y: -3.6299999}
      - {x: 3.1799998, y: -3.6699998}
      - {x: 3.21, y: -3.6799998}
      - {x: 3.31, y: -3.75}
      - {x: 3.49, y: -3.81}
      - {x: 3.53, y: -3.82}
      - {x: 3.8, y: -3.82}
      - {x: 3.87, y: -3.79}
      - {x: 4.13, y: -3.6699998}
    - - {x: -1.9499999, y: -3.37}
      - {x: -2.09, y: -3.1999998}
      - {x: -2.01, y: -3.08}
      - {x: -1.9499999, y: -3}
      - {x: -1.7099999, y: -3.04}
      - {x: -1.68, y: -3.02}
      - {x: -1.4, y: -2.81}
      - {x: -1.36, y: -2.8}
      - {x: -1.37, y: -2.96}
      - {x: -1.27, y: -3.07}
      - {x: -1.18, y: -3.11}
      - {x: -1.1, y: -3.12}
      - {x: -1.03, y: -3.07}
      - {x: -0.93, y: -2.96}
      - {x: -0.87, y: -2.9299998}
      - {x: -0.91999996, y: -2.74}
      - {x: -0.98999995, y: -2.61}
      - {x: -0.74, y: -2.53}
      - {x: -0.62, y: -2.53}
      - {x: -0.45999998, y: -2.4099998}
      - {x: -0.32, y: -2.35}
      - {x: -0.17, y: -2.22}
      - {x: 0.04, y: -2.12}
      - {x: 0.21, y: -2.08}
      - {x: 0.26, y: -2.11}
      - {x: 0.48999998, y: -2.1}
      - {x: 0.55, y: -2.11}
      - {x: 0.84999996, y: -2.07}
      - {x: 0.96999997, y: -2.07}
      - {x: 1.03, y: -2.1599998}
      - {x: 1.1, y: -2.1399999}
      - {x: 1.1899999, y: -2.26}
      - {x: 1.16, y: -2.28}
      - {x: 1.18, y: -2.45}
      - {x: 1.25, y: -2.52}
      - {x: 1.27, y: -2.52}
      - {x: 1.52, y: -2.47}
      - {x: 1.65, y: -2.4199998}
      - {x: 1.67, y: -2.3799999}
      - {x: 1.62, y: -2.29}
      - {x: 1.68, y: -2.27}
      - {x: 1.73, y: -2.2}
      - {x: 1.7199999, y: -2.08}
      - {x: 1.62, y: -2.01}
      - {x: 1.48, y: -1.9799999}
      - {x: 1.4599999, y: -1.91}
      - {x: 1.4, y: -1.8399999}
      - {x: 1.3, y: -1.81}
      - {x: 1.1899999, y: -1.7199999}
      - {x: 1.0699999, y: -1.55}
      - {x: 0.96, y: -1.48}
      - {x: 0.84, y: -1.31}
      - {x: 0.77, y: -1.0699999}
      - {x: 0.74, y: -1.05}
      - {x: 0.74, y: -0.82}
      - {x: 0.78, y: -0.79999995}
      - {x: 0.88, y: -0.68}
      - {x: 0.96999997, y: -0.55}
      - {x: 0.96999997, y: -0.47}
      - {x: 0.84, y: -0.39}
      - {x: 0.77, y: -0.41}
      - {x: 0.7, y: -0.34}
      - {x: 0.63, y: -0.31}
      - {x: 0.65999997, y: -0.26999998}
      - {x: 0.52, y: -0.17}
      - {x: 0.52, y: -0.03}
      - {x: 0.5, y: 0.08}
      - {x: 0.65, y: 0.25}
      - {x: 0.64, y: 0.35}
      - {x: 0.59999996, y: 0.42}
      - {x: 0.59, y: 0.5}
      - {x: 0.64, y: 0.56}
      - {x: 0.74, y: 0.58}
      - {x: 0.89, y: 0.63}
      - {x: 1.12, y: 0.71999997}
      - {x: 1.3299999, y: 0.78999996}
      - {x: 1.42, y: 0.87}
      - {x: 1.48, y: 1.01}
      - {x: 1.48, y: 1.0699999}
      - {x: 1.4399999, y: 1.12}
      - {x: 1.37, y: 1.13}
      - {x: 1.38, y: 1.13}
      - {x: 1.4, y: 1.15}
      - {x: 1.49, y: 1.1999999}
      - {x: 1.67, y: 1.25}
      - {x: 1.73, y: 1.3}
      - {x: 1.8399999, y: 1.37}
      - {x: 1.92, y: 1.4499999}
      - {x: 1.9499999, y: 1.43}
      - {x: 2.1, y: 1.49}
      - {x: 2.21, y: 1.5899999}
      - {x: 2.23, y: 1.6899999}
      - {x: 2.2, y: 1.73}
      - {x: 2.09, y: 1.75}
      - {x: 1.8399999, y: 1.7099999}
      - {x: 1.6999999, y: 1.63}
      - {x: 1.4699999, y: 1.5899999}
      - {x: 1.36, y: 1.52}
      - {x: 1.29, y: 1.49}
      - {x: 1.13, y: 1.43}
      - {x: 1.04, y: 1.38}
      - {x: 0.90999997, y: 1.31}
      - {x: 0.88, y: 1.3399999}
      - {x: 0.81, y: 1.3199999}
      - {x: 0.68, y: 1.3199999}
      - {x: 0.53999996, y: 1.35}
      - {x: 0.48, y: 1.4699999}
      - {x: 0.5, y: 1.6899999}
      - {x: 0.53, y: 1.9}
      - {x: 0.5, y: 2.05}
      - {x: 0.5, y: 2.27}
      - {x: 0.59999996, y: 2.53}
      - {x: 0.59999996, y: 2.58}
      - {x: 0.72999996, y: 2.71}
      - {x: 0.81, y: 2.81}
      - {x: 0.90999997, y: 2.9099998}
      - {x: 1.01, y: 3.08}
      - {x: 1.11, y: 3.1699998}
      - {x: 1.1899999, y: 3.28}
      - {x: 1.24, y: 3.3799999}
      - {x: 1.4399999, y: 3.6}
      - {x: 1.4699999, y: 3.61}
      - {x: 1.53, y: 3.6799998}
      - {x: 1.55, y: 3.74}
      - {x: 1.63, y: 3.79}
      - {x: 1.73, y: 3.9199998}
      - {x: 1.76, y: 4.0099998}
      - {x: 2, y: 4.36}
      - {x: 2.11, y: 4.5}
      - {x: 2.2, y: 4.7}
      - {x: 2.25, y: 4.85}
      - {x: 2.27, y: 4.96}
      - {x: 2.27, y: 5.0099998}
      - {x: 2.53, y: 5.44}
      - {x: 2.7, y: 5.62}
      - {x: 2.83, y: 5.7599998}
      - {x: 2.8999999, y: 5.8199997}
      - {x: 2.9399998, y: 5.93}
      - {x: 3.02, y: 6}
      - {x: 3.12, y: 6.18}
      - {x: 3.25, y: 6.37}
      - {x: 3.31, y: 6.47}
      - {x: 3.3799999, y: 6.54}
      - {x: 3.4299998, y: 6.67}
      - {x: 3.56, y: 6.77}
      - {x: 3.6799998, y: 6.94}
      - {x: 3.6799998, y: 7.1}
      - {x: 3.6599998, y: 7.1299996}
      - {x: 3.58, y: 7.18}
      - {x: 3.3999999, y: 7.18}
      - {x: 3.34, y: 7.1499996}
      - {x: 3.26, y: 7.08}
      - {x: 3.1899998, y: 6.97}
      - {x: 3.08, y: 6.79}
      - {x: 2.9399998, y: 6.66}
      - {x: 2.83, y: 6.44}
      - {x: 2.71, y: 6.33}
      - {x: 2.62, y: 6.22}
      - {x: 2.53, y: 6.0499997}
      - {x: 2.44, y: 5.89}
      - {x: 2.33, y: 5.75}
      - {x: 2.1699998, y: 5.5299997}
      - {x: 2.11, y: 5.45}
      - {x: 2.03, y: 5.27}
      - {x: 1.93, y: 5.13}
      - {x: 1.8199999, y: 5.0499997}
      - {x: 1.76, y: 4.92}
      - {x: 1.64, y: 4.81}
      - {x: 1.5899999, y: 4.74}
      - {x: 1.52, y: 4.64}
      - {x: 1.4499999, y: 4.6}
      - {x: 1.37, y: 4.49}
      - {x: 1.3399999, y: 4.36}
      - {x: 1.29, y: 4.2999997}
      - {x: 1.3, y: 3.97}
      - {x: 1.23, y: 3.79}
      - {x: 1.16, y: 3.6999998}
      - {x: 1.0699999, y: 3.59}
      - {x: 1, y: 3.53}
      - {x: 0.93, y: 3.3999999}
      - {x: 0.79999995, y: 3.24}
      - {x: 0.76, y: 3.22}
      - {x: 0.52, y: 2.9299998}
      - {x: 0.45999998, y: 2.8899999}
      - {x: 0.32999998, y: 2.7}
      - {x: 0.29, y: 2.6799998}
      - {x: 0.21, y: 2.51}
      - {x: 0.07, y: 2.4099998}
      - {x: 0.02, y: 2.33}
      - {x: 0.02, y: 2.4299998}
      - {x: 0.03, y: 2.55}
      - {x: 0.089999996, y: 2.6399999}
      - {x: 0.19, y: 2.9199998}
      - {x: 0.22999999, y: 3.05}
      - {x: 0.35999998, y: 3.09}
      - {x: 0.56, y: 3.1599998}
      - {x: 0.64, y: 3.1999998}
      - {x: 0.65, y: 3.31}
      - {x: 0.58, y: 3.33}
      - {x: 0.51, y: 3.31}
      - {x: 0.39999998, y: 3.35}
      - {x: 0.32999998, y: 3.4499998}
      - {x: 0.22999999, y: 3.48}
      - {x: 0.19999999, y: 3.47}
      - {x: 0.07, y: 3.36}
      - {x: -0.17, y: 3.29}
      - {x: -0.21, y: 3.23}
      - {x: -0.22, y: 3.1799998}
      - {x: -0.14999999, y: 3.1399999}
      - {x: -0.29, y: 3.04}
      - {x: -0.35, y: 2.99}
      - {x: -0.41, y: 2.8}
      - {x: -0.41, y: 2.48}
      - {x: -0.45, y: 2.3799999}
      - {x: -0.35999998, y: 2.28}
      - {x: -0.28, y: 2.26}
      - {x: -0.32999998, y: 2.1}
      - {x: -0.39999998, y: 1.9}
      - {x: -0.45999998, y: 1.8499999}
      - {x: -0.59999996, y: 1.66}
      - {x: -0.91999996, y: 1.66}
      - {x: -0.98999995, y: 1.64}
      - {x: -1.02, y: 1.61}
      - {x: -1.04, y: 1.4399999}
      - {x: -1.22, y: 1.55}
      - {x: -1.37, y: 1.53}
      - {x: -1.49, y: 1.4399999}
      - {x: -1.5899999, y: 1.5}
      - {x: -1.5899999, y: 1.56}
      - {x: -1.65, y: 1.7099999}
      - {x: -1.73, y: 1.87}
      - {x: -1.8499999, y: 1.9699999}
      - {x: -1.9799999, y: 2.09}
      - {x: -2.06, y: 2.1499999}
      - {x: -2.1399999, y: 2.1499999}
      - {x: -2.24, y: 2.07}
      - {x: -2.28, y: 2}
      - {x: -2.26, y: 1.87}
      - {x: -2.2, y: 1.73}
      - {x: -2.2, y: 1.5799999}
      - {x: -2.1399999, y: 1.26}
      - {x: -2.26, y: 1.13}
      - {x: -2.36, y: 1.06}
      - {x: -2.47, y: 0.98999995}
      - {x: -2.6699998, y: 0.93}
      - {x: -2.77, y: 0.91999996}
      - {x: -3.09, y: 0.76}
      - {x: -3.1699998, y: 0.79999995}
      - {x: -3.27, y: 0.78999996}
      - {x: -3.36, y: 0.75}
      - {x: -3.4199998, y: 0.76}
      - {x: -3.53, y: 0.75}
      - {x: -3.6999998, y: 0.78999996}
      - {x: -3.83, y: 0.78999996}
      - {x: -3.99, y: 0.75}
      - {x: -4.02, y: 0.74}
      - {x: -4.12, y: 0.62}
      - {x: -4.1, y: 0.47}
      - {x: -4.0299997, y: 0.35999998}
      - {x: -4.0299997, y: 0.22}
      - {x: -4.16, y: 0.26999998}
      - {x: -4.33, y: 0.14}
      - {x: -4.3399997, y: 0.04}
      - {x: -4.33, y: -0.049999997}
      - {x: -4.37, y: -0.089999996}
      - {x: -4.61, y: -0.089999996}
      - {x: -4.67, y: -0.12}
      - {x: -4.7799997, y: -0.16}
      - {x: -4.96, y: -0.19}
      - {x: -5.14, y: -0.24}
      - {x: -5.35, y: -0.51}
      - {x: -5.39, y: -0.68}
      - {x: -5.49, y: -0.89}
      - {x: -5.49, y: -0.97999996}
      - {x: -5.46, y: -1.05}
      - {x: -5.41, y: -1.1}
      - {x: -5.29, y: -1.18}
      - {x: -5.19, y: -1.3}
      - {x: -5.13, y: -1.55}
      - {x: -5.0299997, y: -1.8399999}
      - {x: -4.95, y: -1.99}
      - {x: -4.7799997, y: -2.26}
      - {x: -4.72, y: -2.31}
      - {x: -4.56, y: -2.48}
      - {x: -4.4, y: -2.61}
      - {x: -4.3399997, y: -2.6}
      - {x: -4.22, y: -2.6599998}
      - {x: -3.99, y: -2.73}
      - {x: -3.6699998, y: -2.74}
      - {x: -3.51, y: -2.81}
      - {x: -3.51, y: -2.85}
      - {x: -3.4399998, y: -2.87}
      - {x: -3.34, y: -2.98}
      - {x: -3.23, y: -3.08}
      - {x: -3.1599998, y: -3.1399999}
      - {x: -2.9099998, y: -3.1299999}
      - {x: -2.8, y: -3.09}
      - {x: -2.6399999, y: -3}
      - {x: -2.4199998, y: -3.01}
      - {x: -2.24, y: -3.1299999}
      - {x: -2.32, y: -3.21}
      - {x: -2.3899999, y: -3.32}
      - {x: -2.3799999, y: -3.52}
      - {x: -2.21, y: -3.6999998}
      - {x: -2.12, y: -3.6999998}
      - {x: -2.02, y: -3.6799998}
      - {x: -1.9499999, y: -3.6599998}
      - {x: -1.9399999, y: -3.58}
      - {x: -1.93, y: -3.48}
    - - {x: -2.6599998, y: -3.26}
      - {x: -2.77, y: -3.26}
      - {x: -2.78, y: -3.27}
      - {x: -2.78, y: -3.46}
      - {x: -2.77, y: -3.5}
      - {x: -2.6299999, y: -3.5}
      - {x: -2.62, y: -3.47}
      - {x: -2.62, y: -3.27}
    - - {x: 3.9199998, y: -2.9099998}
      - {x: 3.72, y: -2.9099998}
      - {x: 3.6699998, y: -2.9399998}
      - {x: 3.6699998, y: -3.08}
      - {x: 3.9399998, y: -3.1899998}
      - {x: 4.16, y: -3.1899998}
      - {x: 4.16, y: -3.08}
      - {x: 4.1, y: -3}
    - - {x: -5.49, y: -2.29}
      - {x: -5.5299997, y: -2.3}
      - {x: -5.68, y: -2.48}
      - {x: -5.68, y: -2.73}
      - {x: -5.64, y: -2.83}
      - {x: -5.37, y: -2.9199998}
      - {x: -5.15, y: -2.9199998}
      - {x: -5.0699997, y: -2.82}
      - {x: -5.0699997, y: -2.45}
      - {x: -5.2, y: -2.29}
    - - {x: 1.7199999, y: -2.55}
      - {x: 1.68, y: -2.56}
      - {x: 1.68, y: -2.7}
      - {x: 1.73, y: -2.73}
      - {x: 1.87, y: -2.73}
      - {x: 1.88, y: -2.7}
      - {x: 1.88, y: -2.58}
      - {x: 1.8499999, y: -2.55}
    - - {x: 4.66, y: -2.62}
      - {x: 4.66, y: -2.5}
      - {x: 4.64, y: -2.45}
      - {x: 4.3399997, y: -2.4099998}
      - {x: 4.24, y: -2.3899999}
      - {x: 3.9499998, y: -2.3899999}
      - {x: 3.83, y: -2.3999999}
      - {x: 3.72, y: -2.49}
      - {x: 3.72, y: -2.6}
      - {x: 3.74, y: -2.6499999}
      - {x: 3.85, y: -2.6599998}
      - {x: 4.4, y: -2.6599998}
      - {x: 4.48, y: -2.6499999}
      - {x: 4.52, y: -2.6599998}
      - {x: 4.61, y: -2.6599998}
    - - {x: 2.08, y: -1.63}
      - {x: 2.08, y: -1.64}
      - {x: 2.1, y: -1.66}
      - {x: 2.12, y: -1.66}
      - {x: 2.1499999, y: -1.63}
      - {x: 2.1399999, y: -1.5999999}
      - {x: 2.11, y: -1.5999999}
    - - {x: 3.46, y: -1.3399999}
      - {x: 3.4399998, y: -1.3}
      - {x: 3.22, y: -1.3}
      - {x: 3.03, y: -1.43}
      - {x: 3.03, y: -1.4699999}
      - {x: 3.07, y: -1.49}
      - {x: 3.3, y: -1.49}
      - {x: 3.3999999, y: -1.4599999}
      - {x: 3.4499998, y: -1.42}
      - {x: 3.46, y: -1.39}
    - - {x: 5.38, y: -0.75}
      - {x: 5.12, y: -0.71}
      - {x: 4.74, y: -0.62}
      - {x: 4.6, y: -0.62}
      - {x: 4.5699997, y: -0.66999996}
      - {x: 4.5699997, y: -0.76}
      - {x: 4.6, y: -0.78}
      - {x: 4.74, y: -0.83}
      - {x: 5.0699997, y: -0.91999996}
      - {x: 5.25, y: -0.96}
      - {x: 5.47, y: -0.96}
      - {x: 5.5, y: -0.89}
      - {x: 5.5, y: -0.84}
      - {x: 5.43, y: -0.78999996}
    - - {x: 5.66, y: -0.14}
      - {x: 5.49, y: -0.07}
      - {x: 5.41, y: -0.06}
      - {x: 5.2799997, y: -0.08}
      - {x: 5.17, y: -0.089999996}
      - {x: 4.7799997, y: -0.04}
      - {x: 4.72, y: -0.03}
      - {x: 4.5099998, y: -0.03}
      - {x: 4.37, y: -0.049999997}
      - {x: 4.33, y: -0.089999996}
      - {x: 4.33, y: -0.22999999}
      - {x: 4.42, y: -0.29}
      - {x: 4.5499997, y: -0.31}
      - {x: 4.88, y: -0.29}
      - {x: 4.97, y: -0.29999998}
      - {x: 5.1, y: -0.26}
      - {x: 5.23, y: -0.25}
      - {x: 5.44, y: -0.32999998}
      - {x: 5.6299996, y: -0.32999998}
      - {x: 5.64, y: -0.37}
      - {x: 5.7, y: -0.37}
      - {x: 5.7999997, y: -0.35}
      - {x: 5.7999997, y: -0.19}
      - {x: 5.7599998, y: -0.17}
    - - {x: 5.02, y: 0.58}
      - {x: 4.96, y: 0.53}
      - {x: 4.96, y: 0.48}
      - {x: 5.0099998, y: 0.45999998}
      - {x: 5.0299997, y: 0.45999998}
      - {x: 5.08, y: 0.48}
      - {x: 5.0899997, y: 0.55}
      - {x: 5.06, y: 0.58}
    - - {x: 5.5299997, y: 0.66999996}
      - {x: 5.54, y: 0.64}
      - {x: 5.5699997, y: 0.64}
      - {x: 5.5899997, y: 0.65999997}
      - {x: 5.58, y: 0.69}
      - {x: 5.5499997, y: 0.69}
    - - {x: 3.26, y: 0.97999996}
      - {x: 3.35, y: 0.96}
      - {x: 3.51, y: 0.98999995}
      - {x: 3.59, y: 0.95}
      - {x: 3.61, y: 1.02}
      - {x: 3.6699998, y: 0.97999996}
      - {x: 3.9299998, y: 1.05}
      - {x: 3.99, y: 1.0799999}
      - {x: 4.11, y: 1.09}
      - {x: 4.22, y: 1.12}
      - {x: 4.33, y: 1.16}
      - {x: 4.43, y: 1.29}
      - {x: 4.46, y: 1.26}
      - {x: 4.5099998, y: 1.25}
      - {x: 4.95, y: 1.3399999}
      - {x: 5.06, y: 1.4}
      - {x: 5.21, y: 1.4399999}
      - {x: 5.33, y: 1.4599999}
      - {x: 5.43, y: 1.49}
      - {x: 5.5299997, y: 1.55}
      - {x: 5.5499997, y: 1.5799999}
      - {x: 5.5499997, y: 1.7199999}
      - {x: 5.49, y: 1.78}
      - {x: 5.4, y: 1.78}
      - {x: 5.33, y: 1.77}
      - {x: 5.24, y: 1.7099999}
      - {x: 5.1, y: 1.67}
      - {x: 5.06, y: 1.62}
      - {x: 4.87, y: 1.62}
      - {x: 4.7799997, y: 1.67}
      - {x: 4.7599998, y: 1.67}
      - {x: 4.74, y: 1.65}
      - {x: 4.74, y: 1.62}
      - {x: 4.65, y: 1.5899999}
      - {x: 4.41, y: 1.48}
      - {x: 4.29, y: 1.4599999}
      - {x: 4.13, y: 1.42}
      - {x: 3.9099998, y: 1.37}
      - {x: 3.6999998, y: 1.3199999}
      - {x: 3.57, y: 1.25}
      - {x: 3.47, y: 1.25}
      - {x: 3.1599998, y: 1.1999999}
      - {x: 2.9199998, y: 1.16}
      - {x: 2.6299999, y: 1.0799999}
      - {x: 2.49, y: 1}
      - {x: 2.49, y: 0.88}
      - {x: 2.57, y: 0.84}
      - {x: 2.6799998, y: 0.84}
      - {x: 2.8799999, y: 0.87}
      - {x: 2.97, y: 0.87}
      - {x: 3.12, y: 0.91999996}
    - - {x: -3.62, y: 1.51}
      - {x: -3.8799999, y: 1.62}
      - {x: -4.06, y: 1.62}
      - {x: -4.11, y: 1.61}
      - {x: -4.33, y: 1.5699999}
      - {x: -4.41, y: 1.53}
      - {x: -4.43, y: 1.49}
      - {x: -4.43, y: 1.14}
      - {x: -4.4, y: 0.97999996}
      - {x: -4.2999997, y: 0.91999996}
      - {x: -4.19, y: 0.85999995}
      - {x: -3.9199998, y: 0.85999995}
      - {x: -3.73, y: 1.01}
      - {x: -3.54, y: 1.25}
      - {x: -3.54, y: 1.35}
    - - {x: 2.35, y: 1.16}
      - {x: 2.2, y: 1.1}
      - {x: 2.12, y: 1}
      - {x: 2.12, y: 0.95}
      - {x: 2.1499999, y: 0.89}
      - {x: 2.31, y: 0.89}
      - {x: 2.4099998, y: 0.9}
      - {x: 2.53, y: 1.06}
      - {x: 2.53, y: 1.13}
      - {x: 2.5, y: 1.16}
    - - {x: 0.099999994, y: 1.16}
      - {x: 0.08, y: 1.16}
      - {x: 0.07, y: 1.15}
      - {x: 0.08, y: 1.15}
      - {x: 0.049999997, y: 1.18}
      - {x: 0.03, y: 1.26}
      - {x: 0, y: 1.3199999}
      - {x: 0.01, y: 1.61}
      - {x: 0.099999994, y: 1.77}
      - {x: 0.25, y: 1.99}
      - {x: 0.31, y: 1.6999999}
      - {x: 0.32, y: 1.4499999}
      - {x: 0.32, y: 1.22}
      - {x: 0.39999998, y: 1.14}
      - {x: 0.5, y: 1.09}
      - {x: 0.51, y: 1.0799999}
      - {x: 0.5, y: 1.09}
      - {x: 0.48, y: 1.09}
    - - {x: 2.61, y: 1.1}
      - {x: 2.62, y: 1.0699999}
      - {x: 2.6499999, y: 1.0699999}
      - {x: 2.6699998, y: 1.09}
      - {x: 2.6599998, y: 1.12}
      - {x: 2.6299999, y: 1.12}
    - - {x: 3.09, y: 1.42}
      - {x: 3.1, y: 1.39}
      - {x: 3.1299999, y: 1.39}
      - {x: 3.1499999, y: 1.41}
      - {x: 3.1399999, y: 1.4399999}
      - {x: 3.11, y: 1.4399999}
    - - {x: 1.78, y: 2.04}
      - {x: 1.86, y: 2.1}
      - {x: 1.86, y: 2.1499999}
      - {x: 1.8, y: 2.2}
      - {x: 1.73, y: 2.2}
      - {x: 1.64, y: 2.1699998}
      - {x: 1.55, y: 2.09}
      - {x: 1.35, y: 1.93}
      - {x: 1.14, y: 1.81}
      - {x: 1.11, y: 1.79}
      - {x: 0.91999996, y: 1.5699999}
      - {x: 0.91999996, y: 1.54}
      - {x: 0.94, y: 1.48}
      - {x: 1.1, y: 1.48}
      - {x: 1.24, y: 1.5999999}
      - {x: 1.42, y: 1.75}
      - {x: 1.54, y: 1.89}
    - - {x: -6.74, y: 2}
      - {x: -7, y: 2}
      - {x: -7, y: 1.5799999}
      - {x: -6.8999996, y: 1.55}
      - {x: -6.68, y: 1.55}
      - {x: -6.6, y: 1.61}
      - {x: -6.58, y: 1.7099999}
      - {x: -6.58, y: 1.89}
    - - {x: -4.79, y: 1.91}
      - {x: -4.8199997, y: 1.8499999}
      - {x: -4.8199997, y: 1.73}
      - {x: -4.7999997, y: 1.6899999}
      - {x: -4.64, y: 1.5799999}
      - {x: -4.6, y: 1.5799999}
      - {x: -4.5499997, y: 1.62}
      - {x: -4.52, y: 1.68}
      - {x: -4.52, y: 1.77}
      - {x: -4.66, y: 1.91}
    - - {x: -5.65, y: 1.81}
      - {x: -5.65, y: 1.7199999}
      - {x: -5.64, y: 1.66}
      - {x: -5.58, y: 1.65}
      - {x: -5.48, y: 1.65}
      - {x: -5.43, y: 1.67}
      - {x: -5.43, y: 1.77}
      - {x: -5.44, y: 1.81}
    - - {x: 5.97, y: 1.6999999}
      - {x: 6.02, y: 1.6999999}
      - {x: 6.1, y: 1.76}
      - {x: 6.1, y: 1.86}
      - {x: 6, y: 1.86}
      - {x: 5.92, y: 1.8299999}
      - {x: 5.92, y: 1.73}
    - - {x: 6.92, y: 2}
      - {x: 6.8799996, y: 2.01}
      - {x: 6.7799997, y: 2.01}
      - {x: 6.45, y: 1.88}
      - {x: 6.45, y: 1.78}
      - {x: 6.5299997, y: 1.7099999}
      - {x: 6.6, y: 1.7099999}
      - {x: 6.75, y: 1.8}
      - {x: 6.94, y: 1.8199999}
      - {x: 7, y: 1.88}
      - {x: 7, y: 1.9499999}
    - - {x: 0.69, y: 2.1599998}
      - {x: 0.66999996, y: 2.1499999}
      - {x: 0.66999996, y: 2.02}
      - {x: 0.69, y: 1.99}
      - {x: 0.78999996, y: 1.99}
      - {x: 0.84999996, y: 2.06}
      - {x: 0.84999996, y: 2.1}
      - {x: 0.83, y: 2.1599998}
    - - {x: 1.2099999, y: 2.27}
      - {x: 1.1899999, y: 2.25}
      - {x: 1.1899999, y: 2.23}
      - {x: 1.2099999, y: 2.21}
      - {x: 1.23, y: 2.21}
      - {x: 1.25, y: 2.23}
      - {x: 1.25, y: 2.25}
      - {x: 1.23, y: 2.27}
    - - {x: -5.73, y: 2.6699998}
      - {x: -5.91, y: 2.6699998}
      - {x: -5.99, y: 2.6299999}
      - {x: -5.99, y: 2.4099998}
      - {x: -5.8799996, y: 2.34}
      - {x: -5.83, y: 2.34}
      - {x: -5.77, y: 2.36}
      - {x: -5.67, y: 2.4299998}
      - {x: -5.67, y: 2.53}
      - {x: -5.69, y: 2.6299999}
    - - {x: -5.12, y: 2.96}
      - {x: -5.42, y: 2.96}
      - {x: -5.54, y: 2.87}
      - {x: -5.54, y: 2.53}
      - {x: -5.44, y: 2.49}
      - {x: -5.1099997, y: 2.49}
      - {x: -5.08, y: 2.52}
      - {x: -5.02, y: 2.6399999}
      - {x: -5.02, y: 2.9199998}
    - - {x: 1.8, y: 3.3799999}
      - {x: 1.77, y: 3.37}
      - {x: 1.77, y: 3.32}
      - {x: 1.78, y: 3.28}
      - {x: 1.81, y: 3.28}
      - {x: 1.8499999, y: 3.31}
      - {x: 1.8499999, y: 3.36}
      - {x: 1.8399999, y: 3.3799999}
    - - {x: 3.48, y: 4.2599998}
      - {x: 3.51, y: 4.27}
      - {x: 3.51, y: 4.2999997}
      - {x: 3.48, y: 4.31}
      - {x: 3.46, y: 4.29}
    - - {x: 1.54, y: 5.0899997}
      - {x: 1.5, y: 5.16}
      - {x: 1.39, y: 5.16}
      - {x: 1.06, y: 4.8199997}
      - {x: 0.91999996, y: 4.5899997}
      - {x: 0.91999996, y: 4.49}
      - {x: 0.96, y: 4.45}
      - {x: 1, y: 4.45}
      - {x: 1.17, y: 4.56}
      - {x: 1.3299999, y: 4.74}
      - {x: 1.54, y: 4.95}
